f6, float, 3: -6.18578e-9
f6, float, 6: -0.00971591

f7, float, 3: -0.00536448
f7, float, 6: -0.2400025

f6, binary, 3: -0.00971591
f6, binary, 6: -0.00971591

f7, binary, 3: -0.01516
f7, binary, 6: -0.2400025

